SLING Data Analysis Workshop
…
✔ Analysis metadata associated with 499 analyses.

✔ Feature metadata associated with 503 features.

A glimpse on the imported MRMkit results

Let’s have a look at the imported data be running code below or by running View(myexp@dataset_orig) in the console. As we can see, the data is in the long format, allowing use to view multiple parameters for each analysis-feature pair.

Explore the different columns and use filter function in the RStudio table viewer.

Code

print(myexp@dataset_orig) # TODO: Replace by actual getter

# A tibble: 250,997 × 19
   analysis_id  data_source raw_data_filename acquisition_time_stamp sample_type
   <chr>        <chr>       <chr>             <dttm>                 <chr>      
 1 Longit_BLAN… ./data/sPe… Longit_BLANK-01 … 2017-10-20 14:15:36    SBLK       
 2 Longit_B-IS… ./data/sPe… Longit_B-ISTD 01… 2017-10-20 14:27:06    PBLK       
 3 Longit_Un-I… ./data/sPe… Longit_Un-ISTD 0… 2017-10-20 14:38:26    UBLK       
 4 Longit_LTR … ./data/sPe… Longit_LTR 01     2017-10-20 14:49:48    LTR        
 5 Longit_TQC-… ./data/sPe… Longit_TQC-10%    2017-10-20 15:12:31    TQC        
 6 Longit_TQC-… ./data/sPe… Longit_TQC-20%    2017-10-20 15:23:51    TQC        
 7 Longit_TQC-… ./data/sPe… Longit_TQC-40%    2017-10-20 15:35:11    TQC        
 8 Longit_TQC-… ./data/sPe… Longit_TQC-60%    2017-10-20 15:46:31    TQC        
 9 Longit_TQC-… ./data/sPe… Longit_TQC-80%    2017-10-20 15:57:51    TQC        
10 Longit_TQC-… ./data/sPe… Longit_TQC-100%   2017-10-20 16:09:11    TQC        
# ℹ 250,987 more rows
# ℹ 14 more variables: batch_id <chr>, feature_id <chr>,
#   norm_istd_feature_id <chr>, integration_qualifier <lgl>, feature_rt <dbl>,
#   feature_area <dbl>, feature_height <dbl>, feature_fwhm <dbl>,
#   feature_int_start <dbl>, feature_int_end <dbl>, method_polarity <chr>,
#   method_precursor_mz <dbl>, method_product_mz <dbl>,
#   method_collision_energy <dbl>
…
